module github.com/dfeyer/flow-debugproxy

go 1.13

require (
	github.com/clbanning/mxj v1.8.4
	github.com/mattn/go-colorable v0.1.4 // indirect
	github.com/mgutz/ansi v0.0.0-20170206155736-9520e82c474b
	github.com/urfave/cli v1.22.2
)